{
  "/js/app.js": "/js/app.js",
  "/css/app.css": "/css/app.css",
  "/js/prelanding.js": "/js/prelanding.js",
  "/js/landing.js": "/js/landing.js",
  "/js/payout.js": "/js/payout.js",
  "/js/dashboard_charts.js": "/js/dashboard_charts.js",
  "/js/copy_to_clipboard.js": "/js/copy_to_clipboard.js",
  "/js/campaign_form.js": "/js/campaign_form.js"
}